Project1
…
Rows: 3198 Columns: 42
── Column specification ────────────────────────────────────────────────────────
Delimiter: ","
chr (22): Area_name, STCOU, EDU010187N1, EDU010187N2, EDU010188N1, EDU010188...
dbl (20): EDU010187F, EDU010187D, EDU010188F, EDU010188D, EDU010189F, EDU010...

ℹ Use `spec()` to retrieve the full column specification for this data.
ℹ Specify the column types or set `show_col_types = FALSE` to quiet this message.

data <- data |>
  select(Area_name, STCOU, ends_with("D")) |>
  rename(area_name=Area_name)
data

# A tibble: 3,198 × 12
   area_name     STCOU EDU010187D EDU010188D EDU010189D EDU010190D EDU010191D
   <chr>         <chr>      <dbl>      <dbl>      <dbl>      <dbl>      <dbl>
 1 UNITED STATES 00000   40024299   39967624   40317775   40737600   41385442
 2 ALABAMA       01000     733735     728234     730048     728252     725541
 3 Autauga, AL   01001       6829       6900       6920       6847       7008
 4 Baldwin, AL   01003      16417      16465      16799      17054      17479
 5 Barbour, AL   01005       5071       5098       5068       5156       5173
 6 Bibb, AL      01007       3557       3508       3571       3621       3652
 7 Blount, AL    01009       7319       7223       7205       7209       7155
 8 Bullock, AL   01011       2014       1980       1985       1983       1985
 9 Butler, AL    01013       4640       4582       4610       4591       4544
10 Calhoun, AL   01015      20939      20923      20907      20849      20768
# ℹ 3,188 more rows
# ℹ 5 more variables: EDU010192D <dbl>, EDU010193D <dbl>, EDU010194D <dbl>,
#   EDU010195D <dbl>, EDU010196D <dbl>

2. Convert the data into long format where each row has only one enrollment value for that Area_name.

library(tidyr)
data <- data |>
  pivot_longer(cols=3:12,
               names_to = "label",
               values_to = "enrollment_value")
data

# A tibble: 31,980 × 4
   area_name     STCOU label      enrollment_value
   <chr>         <chr> <chr>                 <dbl>
 1 UNITED STATES 00000 EDU010187D         40024299
 2 UNITED STATES 00000 EDU010188D         39967624
 3 UNITED STATES 00000 EDU010189D         40317775
 4 UNITED STATES 00000 EDU010190D         40737600
 5 UNITED STATES 00000 EDU010191D         41385442
 6 UNITED STATES 00000 EDU010192D         42088151
 7 UNITED STATES 00000 EDU010193D         42724710
 8 UNITED STATES 00000 EDU010194D         43369917
 9 UNITED STATES 00000 EDU010195D         43993459
10 UNITED STATES 00000 EDU010196D         44715737
# ℹ 31,970 more rows
…
#create a function to convert two-digit character to four-digit numeric year.
convert_year <- function(year) {
  year <- as.numeric(year)
  ifelse(year > 24, 1900 + year, 2000 + year)
}

data <- data |>
  # parse the "label" string
  mutate(year=substr(label, 8, 9)) |>
  mutate(year=convert_year(year)) |>
  # grab measurement information
  mutate(measurement = substr(label, 1, 7))
data

# A tibble: 31,980 × 6
   area_name     STCOU label      enrollment_value  year measurement
   <chr>         <chr> <chr>                 <dbl> <dbl> <chr>      
 1 UNITED STATES 00000 EDU010187D         40024299  1987 EDU0101    
 2 UNITED STATES 00000 EDU010188D         39967624  1988 EDU0101    
 3 UNITED STATES 00000 EDU010189D         40317775  1989 EDU0101    
 4 UNITED STATES 00000 EDU010190D         40737600  1990 EDU0101    
 5 UNITED STATES 00000 EDU010191D         41385442  1991 EDU0101    
 6 UNITED STATES 00000 EDU010192D         42088151  1992 EDU0101    
 7 UNITED STATES 00000 EDU010193D         42724710  1993 EDU0101    
 8 UNITED STATES 00000 EDU010194D         43369917  1994 EDU0101    
 9 UNITED STATES 00000 EDU010195D         43993459  1995 EDU0101    
10 UNITED STATES 00000 EDU010196D         44715737  1996 EDU0101    
# ℹ 31,970 more rows

4. Create two data sets

one data set that contains only non-county data

one data set that contains only county level data

data_noncounty <- data [-grep(pattern = ", \\w\\w", data$area_name),]
data_noncounty

# A tibble: 530 × 6
   area_name     STCOU label      enrollment_value  year measurement
   <chr>         <chr> <chr>                 <dbl> <dbl> <chr>      
 1 UNITED STATES 00000 EDU010187D         40024299  1987 EDU0101    
 2 UNITED STATES 00000 EDU010188D         39967624  1988 EDU0101    
 3 UNITED STATES 00000 EDU010189D         40317775  1989 EDU0101    
 4 UNITED STATES 00000 EDU010190D         40737600  1990 EDU0101    
 5 UNITED STATES 00000 EDU010191D         41385442  1991 EDU0101    
 6 UNITED STATES 00000 EDU010192D         42088151  1992 EDU0101    
 7 UNITED STATES 00000 EDU010193D         42724710  1993 EDU0101    
 8 UNITED STATES 00000 EDU010194D         43369917  1994 EDU0101    
 9 UNITED STATES 00000 EDU010195D         43993459  1995 EDU0101    
10 UNITED STATES 00000 EDU010196D         44715737  1996 EDU0101    
# ℹ 520 more rows

data_county <- data [grep(pattern = ", \\w\\w", data$area_name),]
data_county

# A tibble: 31,450 × 6
   area_name   STCOU label      enrollment_value  year measurement
   <chr>       <chr> <chr>                 <dbl> <dbl> <chr>      
 1 Autauga, AL 01001 EDU010187D             6829  1987 EDU0101    
 2 Autauga, AL 01001 EDU010188D             6900  1988 EDU0101    
 3 Autauga, AL 01001 EDU010189D             6920  1989 EDU0101    
 4 Autauga, AL 01001 EDU010190D             6847  1990 EDU0101    
 5 Autauga, AL 01001 EDU010191D             7008  1991 EDU0101    
 6 Autauga, AL 01001 EDU010192D             7137  1992 EDU0101    
 7 Autauga, AL 01001 EDU010193D             7152  1993 EDU0101    
 8 Autauga, AL 01001 EDU010194D             7381  1994 EDU0101    
 9 Autauga, AL 01001 EDU010195D             7568  1995 EDU0101    
10 Autauga, AL 01001 EDU010196D             7834  1996 EDU0101    
# ℹ 31,440 more rows
…
[1] "county"     "tbl_df"     "tbl"        "data.frame"

class(data_noncounty) <- c("state", class(data_noncounty))
class(data_noncounty)

[1] "state"      "tbl_df"     "tbl"        "data.frame"

5. For the county level tibble, create a new variable that describes which state one of these county measurements corresponds to.

data_county <- data_county |>
  mutate(state = substr(area_name, nchar(area_name)-1, nchar(area_name)))
data_county

# A tibble: 31,450 × 7
   area_name   STCOU label      enrollment_value  year measurement state
   <chr>       <chr> <chr>                 <dbl> <dbl> <chr>       <chr>
 1 Autauga, AL 01001 EDU010187D             6829  1987 EDU0101     AL   
 2 Autauga, AL 01001 EDU010188D             6900  1988 EDU0101     AL   
 3 Autauga, AL 01001 EDU010189D             6920  1989 EDU0101     AL   
 4 Autauga, AL 01001 EDU010190D             6847  1990 EDU0101     AL   
 5 Autauga, AL 01001 EDU010191D             7008  1991 EDU0101     AL   
 6 Autauga, AL 01001 EDU010192D             7137  1992 EDU0101     AL   
 7 Autauga, AL 01001 EDU010193D             7152  1993 EDU0101     AL   
 8 Autauga, AL 01001 EDU010194D             7381  1994 EDU0101     AL   
 9 Autauga, AL 01001 EDU010195D             7568  1995 EDU0101     AL   
10 Autauga, AL 01001 EDU010196D             7834  1996 EDU0101     AL   
# ℹ 31,440 more rows
…
  mutate(area_name = toupper(area_name)) |>
  # classify the states
  mutate(division = ifelse(area_name == "UNITED STATES", "ERROR", 
                           ifelse (area_name %in% Northeast,
                                   "Northeast", 
                                   ifelse(area_name %in% Midwest,
                                          "Midwest", 
                                          ifelse(area_name %in% South,
                                                 "South",
                                                 ifelse(area_name %in% West, 
                                                        "West", 
                                                        "CHECK"))))))
data_noncounty

# A tibble: 530 × 7
   area_name     STCOU label      enrollment_value  year measurement division
   <chr>         <chr> <chr>                 <dbl> <dbl> <chr>       <chr>   
 1 UNITED STATES 00000 EDU010187D         40024299  1987 EDU0101     ERROR   
 2 UNITED STATES 00000 EDU010188D         39967624  1988 EDU0101     ERROR   
 3 UNITED STATES 00000 EDU010189D         40317775  1989 EDU0101     ERROR   
 4 UNITED STATES 00000 EDU010190D         40737600  1990 EDU0101     ERROR   
 5 UNITED STATES 00000 EDU010191D         41385442  1991 EDU0101     ERROR   
 6 UNITED STATES 00000 EDU010192D         42088151  1992 EDU0101     ERROR   
 7 UNITED STATES 00000 EDU010193D         42724710  1993 EDU0101     ERROR   
 8 UNITED STATES 00000 EDU010194D         43369917  1994 EDU0101     ERROR   
 9 UNITED STATES 00000 EDU010195D         43993459  1995 EDU0101     ERROR   
10 UNITED STATES 00000 EDU010196D         44715737  1996 EDU0101     ERROR   
# ℹ 520 more rows
